{
   "data":[
      {
         "id":1,
         "attributes":{
            "title":"111級大學部畢業生畢業證書領取方式暨相關文件",
            "content":"<p>因應全校授課防疫演練線上教學延至本學期末，教務處調整離校程序及學位證書領取方式(如下方公告連結)，本系彙整「畢業證書領取方式及應備文件檢核表」及所需文件如附件供下載。</p><p><strong>教務處公告 : 110學年度第2學期頒發學位證書相關注意事項</strong></p><p>https://oaars.ntcu.edu.tw/front/news/news.php?ID=bnRjdV9ycyZuZXdz&amp;Sn=41</p>",
            "date":"2022-05-23",
            "createdAt":"2022-05-31T07:47:37.608Z",
            "updatedAt":"2022-08-31T06:16:54.240Z",
            "publishedAt":"2022-05-31T08:04:22.893Z",
            "pin":null,
            "locale":"zh-Hant",
            "newsType":{
               "data":[
                  {
                     "id":1,
                     "attributes":{
                        "createdAt":"2022-08-03T07:36:09.638Z",
                        "updatedAt":"2022-08-31T06:05:24.692Z",
                        "publishedAt":"2022-08-03T07:38:28.236Z",
                        "typeName":"學士班"
                     }
                  }
               ]
            }
         }
      },
      {
         "id":2,
         "attributes":{
            "title":"111級大學部畢業生畢業證書領取方式暨相關文件3",
            "content":"<p>因應全校授課防疫演練線上教學延至本學期末，教務處調整離校程序及學位證書領取方式(如下方公告連結)，本系彙整「畢業證書領取方式及應備文件檢核表」及所需文件如附件供下載。</p><p><strong>教務處公告 : 110學年度第2學期頒發學位證書相關注意事項</strong></p><p>https://oaars.ntcu.edu.tw/front/news/news.php?ID=bnRjdV9ycyZuZXdz&amp;Sn=4123</p>",
            "date":"2022-05-30",
            "createdAt":"2022-05-31T07:48:20.270Z",
            "updatedAt":"2022-08-03T07:59:25.854Z",
            "publishedAt":"2022-05-31T08:12:00.872Z",
            "pin":null,
            "locale":"zh-Hant",
            "newsType":{
               "data":[
                  {
                     "id":2,
                     "attributes":{
                        "createdAt":"2022-08-03T07:38:21.775Z",
                        "updatedAt":"2022-08-31T06:05:30.690Z",
                        "publishedAt":"2022-08-03T07:38:32.610Z",
                        "typeName":"碩士班"
                     }
                  }
               ]
            }
         }
      },
      {
         "id":3,
         "attributes":{
            "title":"2111級大學部畢業生畢業證書領取方式暨相關文件3",
            "content":"<p>因應全校授課防疫演練線上教學延至本學期末，教務處調整離校程序及學位證書領取方式(如下方公告連結)，本系彙整「畢業證書領取方式及應備文件檢核表」及所需文件如附件供下載。</p><p><strong>教務處公告 : 110學年度第2學期頒發學位證書相關注意事項</strong></p><p>https://oaars.ntcu.edu.tw/front/news/news.php?ID=bnRjdV9ycyZuZXdz&amp;Sn=41232</p>",
            "date":"2022-05-30",
            "createdAt":"2022-05-31T07:49:04.679Z",
            "updatedAt":"2022-08-03T08:01:10.711Z",
            "publishedAt":"2022-05-31T08:12:04.499Z",
            "pin":null,
            "locale":"zh-Hant",
            "newsType":{
               "data":[
                  {
                     "id":1,
                     "attributes":{
                        "createdAt":"2022-08-03T07:36:09.638Z",
                        "updatedAt":"2022-08-31T06:05:24.692Z",
                        "publishedAt":"2022-08-03T07:38:28.236Z",
                        "typeName":"學士班"
                     }
                  },
                  {
                     "id":2,
                     "attributes":{
                        "createdAt":"2022-08-03T07:38:21.775Z",
                        "updatedAt":"2022-08-31T06:05:30.690Z",
                        "publishedAt":"2022-08-03T07:38:32.610Z",
                        "typeName":"碩士班"
                     }
                  }
               ]
            }
         }
      },
      {
         "id":4,
         "attributes":{
            "title":"級1大學部畢業生畢業證書領取方式暨相關文件3111111111111111111111111111111111111111111111111111111111111111111111111111",
            "content":"<p>因應全校授課防疫演練線上教學延至本學期末，教務處調整離校程序及學位證書領取方式(如下方公告連結)，本系彙整「畢業證書領取方式及應備文件檢核表」及所需文件如附件供下載。</p><p><strong>教務處公告 : 110學年度第2學期頒發學位證書相關注意事項</strong></p><p><a href=\"https://oaars.ntcu.edu.tw/front/n3ews/news.php?ID=bnRjdV9ycyZuZXdz&amp;Sn=41232\" target=\"_blank\" rel=\"noopener noreferrer\">https://oaars.ntcu.edu.tw/front/n3ews/news.php?ID=bnRjdV9ycyZuZXdz&amp;Sn=41232</a></p>",
            "date":"2022-05-30",
            "createdAt":"2022-05-31T07:49:17.765Z",
            "updatedAt":"2022-12-01T01:56:56.304Z",
            "publishedAt":"2022-05-31T08:12:07.140Z",
            "pin":true,
            "locale":"zh-Hant",
            "newsType":{
               "data":[
                  {
                     "id":1,
                     "attributes":{
                        "createdAt":"2022-08-03T07:36:09.638Z",
                        "updatedAt":"2022-08-31T06:05:24.692Z",
                        "publishedAt":"2022-08-03T07:38:28.236Z",
                        "typeName":"學士班"
                     }
                  }
               ]
            }
         }
      },
      {
         "id":5,
         "attributes":{
            "title":"432111級大學部畢業生畢業證書領取方式暨相關文件3",
            "content":"<p>因應全校授課防疫演練線上教學延至本學期末，教務處調整離校程序及學位證書領取方式(如下方公告連結)，本系彙整「畢業證書領取方式及應備文件檢核表」及所需文件如附件供下載。</p><p><strong>教務處公告 : 110學年度第2學期頒發學位證書相關注意事項</strong></p><p>https://o4aars.ntcu.edu.tw/front/n3ews/news.php?ID=bnRjdV9ycyZuZXdz&amp;Sn=41232</p>",
            "date":"2022-05-30",
            "createdAt":"2022-05-31T07:49:28.930Z",
            "updatedAt":"2022-08-03T08:01:34.686Z",
            "publishedAt":"2022-05-31T08:12:10.716Z",
            "pin":null,
            "locale":"zh-Hant",
            "newsType":{
               "data":[
                  {
                     "id":1,
                     "attributes":{
                        "createdAt":"2022-08-03T07:36:09.638Z",
                        "updatedAt":"2022-08-31T06:05:24.692Z",
                        "publishedAt":"2022-08-03T07:38:28.236Z",
                        "typeName":"學士班"
                     }
                  }
               ]
            }
         }
      },
      {
         "id":6,
         "attributes":{
            "title":"4532111級大學部畢業生畢業證書領取方式暨相關文件3",
            "content":"<p>因應全校授課防疫演練線上教學延至本學期末，教務處調整離校程序及5學位證書領取方式(如下方公告連結)，本系彙整「畢業證書領取方式及應備文件檢核表」及所需文件如附件供下載。</p><p><strong>教務處公告 : 110學年度第2學期頒發學位證書相關注意事項</strong></p><p>https://o4aars.ntcu.edu.tw/front/n3ews/news.php?ID=bnRjdV9ycyZuZXdz&amp;Sn=41232</p>",
            "date":"2022-05-30",
            "createdAt":"2022-05-31T07:50:04.048Z",
            "updatedAt":"2022-08-03T08:01:39.858Z",
            "publishedAt":"2022-05-31T08:12:14.097Z",
            "pin":null,
            "locale":"zh-Hant",
            "newsType":{
               "data":[
                  {
                     "id":2,
                     "attributes":{
                        "createdAt":"2022-08-03T07:38:21.775Z",
                        "updatedAt":"2022-08-31T06:05:30.690Z",
                        "publishedAt":"2022-08-03T07:38:32.610Z",
                        "typeName":"碩士班"
                     }
                  }
               ]
            }
         }
      },
      {
         "id":7,
         "attributes":{
            "title":"級3大學部畢業生畢業證書領取方式暨相關文件3",
            "content":"<p>因應全校授課防疫演練線上教學延至本學期末，教務處調整離校程序及5學位證書領取方式(如下方公告連結)，本系彙整「畢業證書領取方式及應備文件檢核表」及所需文件如附件供下載。</p><p><strong>教務處公告 : 110學年度第2學期頒發學位證書相關注意事項</strong></p><p>https://o4aars.ntcu.edu.tw/front/n3ews/news.php?ID=bnRjdV9ycyZuZXdz&amp;Sn=41232</p>",
            "date":"2022-05-10",
            "createdAt":"2022-05-31T07:50:14.205Z",
            "updatedAt":"2022-08-31T09:20:34.001Z",
            "publishedAt":"2022-05-31T08:12:17.249Z",
            "pin":null,
            "locale":"zh-Hant",
            "newsType":{
               "data":[
                  {
                     "id":2,
                     "attributes":{
                        "createdAt":"2022-08-03T07:38:21.775Z",
                        "updatedAt":"2022-08-31T06:05:30.690Z",
                        "publishedAt":"2022-08-03T07:38:32.610Z",
                        "typeName":"碩士班"
                     }
                  }
               ]
            }
         }
      },
      {
         "id":8,
         "attributes":{
            "title":"級4大學部畢業生畢業證書領取方式暨相關文件3",
            "content":"<p>因應全校授課防疫演練線上教學延至本學期末，教務處調整離校程序及5學位證書領取方式(如下方公告連結)，本系彙整「畢業證書領取方式及應備文件檢核表」及所需文件如附件供下載。</p><p><strong>教務處公告 : 110學年度第2學期頒發學位證7書相關注意事項</strong></p><p>https://o4aars.ntcu.edu.tw/front/n3ews/news.php?ID=bnRjdV9ycyZuZXdz&amp;Sn=41232</p>",
            "date":"2022-05-10",
            "createdAt":"2022-05-31T07:50:41.006Z",
            "updatedAt":"2022-08-31T09:20:41.349Z",
            "publishedAt":"2022-05-31T08:12:20.913Z",
            "pin":null,
            "locale":"zh-Hant",
            "newsType":{
               "data":[
                  {
                     "id":2,
                     "attributes":{
                        "createdAt":"2022-08-03T07:38:21.775Z",
                        "updatedAt":"2022-08-31T06:05:30.690Z",
                        "publishedAt":"2022-08-03T07:38:32.610Z",
                        "typeName":"碩士班"
                     }
                  },
                  {
                     "id":4,
                     "attributes":{
                        "createdAt":"2022-08-03T07:39:24.496Z",
                        "updatedAt":"2022-08-31T06:04:48.498Z",
                        "publishedAt":"2022-08-03T07:39:25.496Z",
                        "typeName":"徵才資訊"
                     }
                  }
               ]
            }
         }
      },
      {
         "id":9,
         "attributes":{
            "title":"這2一個重要的消息喔7648532111級大學部畢業生畢業證書領取方式暨相關文件3",
            "content":"<p>因應全校授課防疫演練線上教學延至本學期末，教務處調整離校程序及5學位證書領取方式(如下方公告連結)，本系彙整「畢8業證書領取方式及應備文件檢核表」及所需文件如附件供下載。</p><p><strong>教務處公告 : 110學年度第2學期頒發學位證7書相關注意事項</strong></p><p>https://o4aars.ntcu.edu.tw/front/n3ews/news.php?ID=bnRjdV9ycyZuZXdz&amp;Sn=41232</p>",
            "date":"2022-05-10",
            "createdAt":"2022-05-31T07:50:48.826Z",
            "updatedAt":"2022-08-31T09:21:19.819Z",
            "publishedAt":"2022-05-31T08:12:24.061Z",
            "pin":true,
            "locale":"zh-Hant",
            "newsType":{
               "data":[
                  {
                     "id":3,
                     "attributes":{
                        "createdAt":"2022-08-03T07:39:09.859Z",
                        "updatedAt":"2022-08-31T06:03:42.563Z",
                        "publishedAt":"2022-08-03T07:39:12.146Z",
                        "typeName":"活動/演講"
                     }
                  },
                  {
                     "id":4,
                     "attributes":{
                        "createdAt":"2022-08-03T07:39:24.496Z",
                        "updatedAt":"2022-08-31T06:04:48.498Z",
                        "publishedAt":"2022-08-03T07:39:25.496Z",
                        "typeName":"徵才資訊"
                     }
                  },
                  {
                     "id":5,
                     "attributes":{
                        "createdAt":"2022-08-03T07:39:41.396Z",
                        "updatedAt":"2022-08-31T06:05:14.259Z",
                        "publishedAt":"2022-08-03T07:39:41.882Z",
                        "typeName":"獎學金"
                     }
                  },
                  {
                     "id":7,
                     "attributes":{
                        "createdAt":"2022-08-03T07:40:01.815Z",
                        "updatedAt":"2022-08-31T06:05:43.707Z",
                        "publishedAt":"2022-08-03T07:40:03.149Z",
                        "typeName":"其他"
                     }
                  }
               ]
            }
         }
      },
      {
         "id":10,
         "attributes":{
            "title":"79648532111級大學部畢業生畢業證書領取方式暨相關文件3",
            "content":"<p>因應全校授課防疫演練線上教學延至本學期末，教務處調整離校程序及5學位證書領取方式(如下方公告連結)，本系彙整「畢8業證書領取方式及應備文件檢核表」及所需文件如附件供下載。</p><p><strong>教務處公告 : 110學年度第2學期頒發學位證7書相關注意事項</strong></p><p>https://o4aars.ntcu.edu.tw/front/n3e9ws/news.php?ID=bnRjdV9ycyZuZXdz&amp;Sn=41232</p>",
            "date":"2022-05-10",
            "createdAt":"2022-05-31T07:51:05.908Z",
            "updatedAt":"2022-08-03T08:02:07.396Z",
            "publishedAt":"2022-05-31T08:12:28.257Z",
            "pin":null,
            "locale":"zh-Hant",
            "newsType":{
               "data":[
                  {
                     "id":3,
                     "attributes":{
                        "createdAt":"2022-08-03T07:39:09.859Z",
                        "updatedAt":"2022-08-31T06:03:42.563Z",
                        "publishedAt":"2022-08-03T07:39:12.146Z",
                        "typeName":"活動/演講"
                     }
                  }
               ]
            }
         }
      },
      {
         "id":11,
         "attributes":{
            "title":"本系大學部林文妍同學榮獲2022台灣電腦對局研討會( TCGA)「佳作論文獎」。",
            "content":"<p>論文題目：Nonogram解題中以邏輯規則進行單行求解效益之採討</p><p>指導教授：黃國展教授</p>",
            "date":"2022-06-15",
            "createdAt":"2022-06-14T08:06:01.176Z",
            "updatedAt":"2022-08-03T08:03:11.889Z",
            "publishedAt":"2022-06-14T08:06:02.887Z",
            "pin":null,
            "locale":"zh-Hant",
            "newsType":{
               "data":[
                  {
                     "id":7,
                     "attributes":{
                        "createdAt":"2022-08-03T07:40:01.815Z",
                        "updatedAt":"2022-08-31T06:05:43.707Z",
                        "publishedAt":"2022-08-03T07:40:03.149Z",
                        "typeName":"其他"
                     }
                  }
               ]
            }
         }
      },
      {
         "id":12,
         "attributes":{
            "title":"「財團法人人工智慧科技基金會/AIF未來科技人培訓計畫」內容詳見附件說明。",
            "content":"<p><strong>申請資格</strong></p><p>熟悉 Python 程式設計。</p><p>積極、配合度高、具有分析解決問題以及溝通能力。</p><p>具機器學習/深度學習/統計分析相關經驗。（加分條件）<br>&nbsp;</p><p><strong>實習職缺</strong></p><p>AI實習工程師</p><p><strong>實習內容</strong></p><p>參與人工智慧相關專案</p><p>新技術研究及報告</p><p>人工智慧課程助教</p><p>＊需配合專案內容前往合作企業出差。</p><p>&nbsp;</p><p><strong>實習期間</strong></p><p>2021/03~2022/02</p><p>時間： 週一至週五 09:00~18:00 (每週三天，可依課程時間調整時段）</p><p><strong>實習地點：</strong></p><p>台北或台中</p><p><strong>實習費用</strong></p><p>每月2萬5千元起</p><p><strong>報名期間</strong></p><p>請於2021.01.18前完成此份報名表單並送出</p><p>報名表單 :&nbsp;<a href=\"https://www.surveycake.com/s/DBkBb\">https://www.surveycake.com/s/DBkBb</a></p><p>&nbsp;</p><p>聯絡窗口：0917789902 林小姐(Email：<a href=\"mailto:menghua.lin@aif.tw\">menghua.lin@aif.tw</a>)</p><p><br>&nbsp;</p>",
            "date":"2022-06-17",
            "createdAt":"2022-06-14T08:07:17.876Z",
            "updatedAt":"2022-08-03T08:02:34.168Z",
            "publishedAt":"2022-06-14T08:07:19.541Z",
            "pin":null,
            "locale":"zh-Hant",
            "newsType":{
               "data":[
                  {
                     "id":4,
                     "attributes":{
                        "createdAt":"2022-08-03T07:39:24.496Z",
                        "updatedAt":"2022-08-31T06:04:48.498Z",
                        "publishedAt":"2022-08-03T07:39:25.496Z",
                        "typeName":"徵才資訊"
                     }
                  },
                  {
                     "id":5,
                     "attributes":{
                        "createdAt":"2022-08-03T07:39:41.396Z",
                        "updatedAt":"2022-08-31T06:05:14.259Z",
                        "publishedAt":"2022-08-03T07:39:41.882Z",
                        "typeName":"獎學金"
                     }
                  }
               ]
            }
         }
      },
      {
         "id":13,
         "attributes":{
            "title":"「采霆有限公司/企業實習合作提案」內容詳見附件說明。",
            "content":"<p>如有相關問題可向林先生洽詢。</p><p>&nbsp;</p><p>對象：全國大專院校研究所學生或大學學生</p><p>實習期間：學期或寒暑假</p><p>實習地點：桃園市桃園區莊敬路一段368號2樓</p><p>&nbsp;</p><p>聯絡窗口：0960530925 林先生(Email：eddie@shunteam.com)</p><p><br>&nbsp;</p>",
            "date":"2022-06-24",
            "createdAt":"2022-06-14T08:08:59.694Z",
            "updatedAt":"2022-12-27T17:58:55.281Z",
            "publishedAt":"2022-06-14T08:09:02.040Z",
            "pin":true,
            "locale":"zh-Hant",
            "newsType":{
               "data":[
                  {
                     "id":3,
                     "attributes":{
                        "createdAt":"2022-08-03T07:39:09.859Z",
                        "updatedAt":"2022-08-31T06:03:42.563Z",
                        "publishedAt":"2022-08-03T07:39:12.146Z",
                        "typeName":"活動/演講"
                     }
                  },
                  {
                     "id":5,
                     "attributes":{
                        "createdAt":"2022-08-03T07:39:41.396Z",
                        "updatedAt":"2022-08-31T06:05:14.259Z",
                        "publishedAt":"2022-08-03T07:39:41.882Z",
                        "typeName":"獎學金"
                     }
                  }
               ]
            }
         }
      },
      {
         "id":14,
         "attributes":{
            "title":"公3告本系111學年度大學個人申請入學第二階段甄試「團體面試」時間表及考生名單",
            "content":"<p>一、面試時間：</p><p>第1梯次：111年5月20日(星期五)14:00起</p><p>第2梯次：111年5月21日(星期六) 9:30起</p><p>(各組考生報到時間請參閱附件)</p><p>二、報到地點：本校求真樓2樓K204a電腦教室。(因校園執行門禁管制，請由民生路大門口入校。)</p><p>三、「甄試時間表及考生名單」請參閱附件，屆時請依當日正式活動流程進行，為保護個人資料，本公告名單僅顯示學測應試號碼及姓名隱碼，請務必詳加比對，如有疑義請來電洽詢。</p><p>四、考生報到繳驗文件：</p><p>（一）身分證(或具照片之健保卡)</p><p>（二）甄試通知單</p><p>*低收入戶考生須於甄試當日繳交111年度低收入戶證明文件正本(查驗後退還)及其影本各1份，當日未繳交者，視為一般考生資格，不得異議。</p><p>五、每位考生必須參加同一梯次(同天)之2場團體面試，並於面試結束後，簽退及繳回「意見調查表」，始完成甄試。</p><p>六、面試場次時間之安排，係依各考生於報名系統預約登錄時間為主，考生應依規定時間報到，若無法依原訂時間參加，須事先電洽系聯絡人（04-22183582朱小姐），本系將視情況另行安排參加其他時段，若當日甄試結束仍未報到，將以棄權論。</p><p>七、防疫配合事項：</p><p>（一）本次甄試不設置考生家長休息區，建請考生親友儘可能不要陪考，尤其有發燒、咳嗽、流鼻水等呼吸道或其他類流感症狀者<strong>不得入校</strong>。</p><p>（二）考生請全程配戴口罩，並請配合量測體溫、手部消毒等防疫措施；應試過程若須查核身分時，請配合暫時取下口罩查驗。</p><p>（三）考生於交通往返過程亦需留意及採行相關防護措施，例如:搭乘大眾交通運輸工具配戴口罩等規定。</p><p><strong>（四）考生於應試當日如有須適用疫情應變機制方案之情形，無法即時取得衛政機關核發之相關證明者，須繳交填具本校「啟用因應疫情應變機制切結書」，至遲應於111年5月30日下午5時前補傳真有關證明文件至本校教務處綜合業務組查驗（傳真號碼：04-22183130，傳真後務請於上班時間來電確認，04-22183693）；倘未能如期檢附證明文件，將依簡章或校系二階甄試規範以缺考論。</strong></p><p><strong>（五）考生請留意自身健康情形，若具感染風險應主動告知本系與本校教務處；倘有確診、居家隔離、居家檢疫情形而私自參加甄試之情事發生，經查證屬實者，將取消甄試成績並通知政府相關單位依傳染病防治法等相關法規進行後續處理。</strong></p><p>（六）其餘防疫注意事項將依中央流行疫情指揮中心公布之即時疫情，調整因應措施。</p><p>竭誠歡迎各位考生蒞臨，資訊工程學系預祝您金榜題名!</p><p>*部分考生因特殊情形需調整面試時段，爰本系於111年5月18日更新面試順序並微幅更動面試時間，報到時間不受影響(如附件，調整部分以橘色字體顯示)</p>",
            "date":"2022-06-30",
            "createdAt":"2022-06-14T08:12:08.898Z",
            "updatedAt":"2023-02-07T06:08:00.288Z",
            "publishedAt":"2022-06-14T08:12:11.457Z",
            "pin":true,
            "locale":"zh-Hant",
            "newsType":{
               "data":[
                  
               ]
            }
         }
      },
      {
         "id":15,
         "attributes":{
            "title":"「網4際威信實習方案」實習內容詳見附件說明。",
            "content":"<p>如有相關問題可向葛先生洽詢。</p><p>&nbsp;</p><p>對象：全國大專院校研究所學生或大學學生</p><p>實習地點：台北市內湖區港墘路200號7樓</p><p>聯絡窗口：(02)2658-6000#210葛先生(Email：rexke@hitrust.com.tw)</p>",
            "date":"2022-06-28",
            "createdAt":"2022-06-14T08:14:22.243Z",
            "updatedAt":"2022-08-31T09:22:55.165Z",
            "publishedAt":"2022-06-14T08:14:24.073Z",
            "pin":null,
            "locale":"zh-Hant",
            "newsType":{
               "data":[
                  {
                     "id":3,
                     "attributes":{
                        "createdAt":"2022-08-03T07:39:09.859Z",
                        "updatedAt":"2022-08-31T06:03:42.563Z",
                        "publishedAt":"2022-08-03T07:39:12.146Z",
                        "typeName":"活動/演講"
                     }
                  }
               ]
            }
         }
      },
      {
         "id":16,
         "attributes":{
            "title":"「111學年度學士班個人申請招生入學」考生書審資料準備方向",
            "content":"<p>本系「111學年度學士班個人申請招生入學」考生書審資料準備方向敬請參閱附件，提供各位考生參考。</p><p><strong>＊111.04.19更新「準備指引」 說明：</strong></p><p>依據教育部111年3月9日臺教高(四)字第1112201260號函文規定，大學端辦理相關活動不可授予參與證明，爰配合刪除本系準備指引「多元表現」--「特殊優良表現證明」第4至第6點之「參加證明」文字。</p><p>&nbsp;</p><p><strong>＊111.03.24更新「準備指引」 說明：</strong><br>1.課程學習成果 ：※ 若未提供課程學習成果，相關項目分 數以零分計 ※</p><p>2.多元表現&nbsp;</p><p>(1)高中自主學習計畫成果 ：※ 若未提供自主學習計畫成果，相關項 目分數以零分計※</p><p>(2)特殊優良表現證明 ：&nbsp;※ 未提供佐證資料則不採計 ※</p>",
            "date":"2022-06-23",
            "createdAt":"2022-06-14T08:15:52.692Z",
            "updatedAt":"2022-08-03T08:02:13.142Z",
            "publishedAt":"2022-06-14T08:15:54.083Z",
            "pin":null,
            "locale":"zh-Hant",
            "newsType":{
               "data":[
                  {
                     "id":2,
                     "attributes":{
                        "createdAt":"2022-08-03T07:38:21.775Z",
                        "updatedAt":"2022-08-31T06:05:30.690Z",
                        "publishedAt":"2022-08-03T07:38:32.610Z",
                        "typeName":"碩士班"
                     }
                  }
               ]
            }
         }
      },
      {
         "id":17,
         "attributes":{
            "title":"恭賀~本系大學部周暘烜同學參加第52屆全國技能競賽中區分區技能競賽青年組「雲端運算」職類，榮獲第四名！  指導教授：孔崇旭教授",
            "content":"<p>恭賀~本系大學部周暘烜同學參加第52屆全國技能競賽中區分區技能競賽青年組「雲端運算」職類，榮獲第四名！</p><p>指導教授：孔崇旭教授</p>",
            "date":"2022-06-21",
            "createdAt":"2022-06-14T08:16:42.420Z",
            "updatedAt":"2022-08-03T08:03:04.995Z",
            "publishedAt":"2022-06-14T08:17:08.827Z",
            "pin":null,
            "locale":"zh-Hant",
            "newsType":{
               "data":[
                  {
                     "id":7,
                     "attributes":{
                        "createdAt":"2022-08-03T07:40:01.815Z",
                        "updatedAt":"2022-08-31T06:05:43.707Z",
                        "publishedAt":"2022-08-03T07:40:03.149Z",
                        "typeName":"其他"
                     }
                  }
               ]
            }
         }
      },
      {
         "id":18,
         "attributes":{
            "title":"【111學年度學士班特殊選才招生甄試-考生面試時間公告】",
            "content":"<p>一、甄試日期：110年12月10日（星期五）</p><p>二、報到地點：求真樓2樓資訊工程學系K204a電腦教室。</p><p>三、考生面試時間表請參閱附件，並<strong>請依面試時間提早10分鐘報到</strong>。</p><p>四、注意事項：</p><p>(一)請攜帶准考證及國民身分證正本到場參加面試。</p><p>1、准考證可於110年12月1日(星期三)起，自行登入本校招生考試報名系統網頁(http://mdpt.ntcu.edu.tw/recruit/signup/)列印使用。</p><p>2、國民身分證正本得以有效期限內之駕照、具照片之健保IC卡或護照之正本代替。</p><p>(二)因五權路與民權路口校門實施門禁管控，請由民生路大門口入校，並配合入校實聯制登記及量測體溫。</p><p>(三)為配合防疫，請務必佩戴口罩，並配合入校實聯制登記及工作人員量測體溫。</p><p>(四)為協助經濟弱勢學生就學，本系提供1名名額優先錄取低收入戶學生。符合本項資格之考生，應於面試當日，繳交110年度低收入戶證明文件正本(含影本1份)，當日未繳交者，視為一般考生資格，不得異議。</p><p>(五)考生請依排定時間至求真樓2樓K204a電腦教室辦理報到，若無法於規定時間內進行面試，須事先電洽系聯絡人(04-22183582朱小姐)，視情形調整面試時間，若當日試務結束前仍未報到者，將以棄權論。</p><p>(六)面試說明：</p><p>1、採個人面試，每位考生均須參加兩場面試，每場面試時間各8分鐘。</p><p>2、面試結束後由工作人員引導至報到處填寫問卷後即可離開。</p><p>(七)放榜時間：</p><p>110年12月24日(星期五)上午11時，由本校教務處統一放榜，榜單請至本校網站首頁/招生資訊查閱。</p><p>&nbsp;</p><p>*部分考生因特殊情形需調整面試時段，爰本系於110年12月8日更新面試順序(如附件，調整部分以橘色字體顯示)</p>",
            "date":"2022-06-14",
            "createdAt":"2022-06-14T08:22:04.825Z",
            "updatedAt":"2022-08-03T08:02:51.447Z",
            "publishedAt":"2022-06-14T08:22:06.444Z",
            "pin":null,
            "locale":"zh-Hant",
            "newsType":{
               "data":[
                  {
                     "id":5,
                     "attributes":{
                        "createdAt":"2022-08-03T07:39:41.396Z",
                        "updatedAt":"2022-08-31T06:05:14.259Z",
                        "publishedAt":"2022-08-03T07:39:41.882Z",
                        "typeName":"獎學金"
                     }
                  }
               ]
            }
         }
      },
      {
         "id":19,
         "attributes":{
            "title":"45256325",
            "content":"<p>14896215896</p>",
            "date":null,
            "createdAt":"2023-01-17T06:28:34.345Z",
            "updatedAt":"2023-01-17T06:28:36.792Z",
            "publishedAt":"2023-01-17T06:28:36.789Z",
            "pin":true,
            "locale":"zh-Hant",
            "newsType":{
               "data":[
                  
               ]
            }
         }
      },
      {
         "id":20,
         "attributes":{
            "title":"碩士班1",
            "content":"<p>碩士班碩士班碩士班碩士班碩士班碩士班碩士班碩士班</p>",
            "date":"2023-01-31",
            "createdAt":"2023-01-17T08:10:00.894Z",
            "updatedAt":"2023-01-19T13:31:56.120Z",
            "publishedAt":"2023-01-17T08:10:02.572Z",
            "pin":null,
            "locale":"zh-Hant",
            "newsType":{
               "data":[
                  {
                     "id":2,
                     "attributes":{
                        "createdAt":"2022-08-03T07:38:21.775Z",
                        "updatedAt":"2022-08-31T06:05:30.690Z",
                        "publishedAt":"2022-08-03T07:38:32.610Z",
                        "typeName":"碩士班"
                     }
                  }
               ]
            }
         }
      },
      {
         "id":21,
         "attributes":{
            "title":"碩士班3",
            "content":"<p>碩士班碩士班碩士班碩士班碩士班碩士班碩士班碩士班碩士班碩士班碩士班碩士班</p>",
            "date":"2023-01-17",
            "createdAt":"2023-01-17T08:10:15.051Z",
            "updatedAt":"2023-01-19T13:32:06.353Z",
            "publishedAt":"2023-01-17T08:10:17.915Z",
            "pin":null,
            "locale":"zh-Hant",
            "newsType":{
               "data":[
                  {
                     "id":2,
                     "attributes":{
                        "createdAt":"2022-08-03T07:38:21.775Z",
                        "updatedAt":"2022-08-31T06:05:30.690Z",
                        "publishedAt":"2022-08-03T07:38:32.610Z",
                        "typeName":"碩士班"
                     }
                  }
               ]
            }
         }
      },
      {
         "id":22,
         "attributes":{
            "title":"碩士班15",
            "content":"<p>碩士班碩士班碩士班碩士班碩士班碩士班碩士班碩士班碩士班碩士班碩士班碩士班碩士班碩士班碩士班碩士班碩士班碩士班</p>",
            "date":"2023-01-10",
            "createdAt":"2023-01-17T08:10:31.355Z",
            "updatedAt":"2023-01-19T13:33:18.872Z",
            "publishedAt":"2023-01-17T08:10:32.484Z",
            "pin":null,
            "locale":"zh-Hant",
            "newsType":{
               "data":[
                  {
                     "id":2,
                     "attributes":{
                        "createdAt":"2022-08-03T07:38:21.775Z",
                        "updatedAt":"2022-08-31T06:05:30.690Z",
                        "publishedAt":"2022-08-03T07:38:32.610Z",
                        "typeName":"碩士班"
                     }
                  }
               ]
            }
         }
      },
      {
         "id":23,
         "attributes":{
            "title":"碩士班19",
            "content":"<p>碩士班碩士班碩士班碩士班碩士班碩士班碩士班碩士班碩士班碩士班碩士班碩士班</p>",
            "date":"2023-01-04",
            "createdAt":"2023-01-17T08:10:50.284Z",
            "updatedAt":"2023-01-19T13:33:51.349Z",
            "publishedAt":"2023-01-17T08:10:51.497Z",
            "pin":null,
            "locale":"zh-Hant",
            "newsType":{
               "data":[
                  {
                     "id":1,
                     "attributes":{
                        "createdAt":"2022-08-03T07:36:09.638Z",
                        "updatedAt":"2022-08-31T06:05:24.692Z",
                        "publishedAt":"2022-08-03T07:38:28.236Z",
                        "typeName":"學士班"
                     }
                  },
                  {
                     "id":2,
                     "attributes":{
                        "createdAt":"2022-08-03T07:38:21.775Z",
                        "updatedAt":"2022-08-31T06:05:30.690Z",
                        "publishedAt":"2022-08-03T07:38:32.610Z",
                        "typeName":"碩士班"
                     }
                  }
               ]
            }
         }
      },
      {
         "id":24,
         "attributes":{
            "title":"碩士班18",
            "content":"<p>碩士班碩士班碩士班碩士班碩士班碩士班碩士班碩士班碩士班碩士班碩士班碩士班碩士班</p>",
            "date":"2023-01-05",
            "createdAt":"2023-01-17T08:11:02.297Z",
            "updatedAt":"2023-01-19T13:33:45.420Z",
            "publishedAt":"2023-01-17T08:11:03.659Z",
            "pin":null,
            "locale":"zh-Hant",
            "newsType":{
               "data":[
                  {
                     "id":2,
                     "attributes":{
                        "createdAt":"2022-08-03T07:38:21.775Z",
                        "updatedAt":"2022-08-31T06:05:30.690Z",
                        "publishedAt":"2022-08-03T07:38:32.610Z",
                        "typeName":"碩士班"
                     }
                  }
               ]
            }
         }
      },
      {
         "id":25,
         "attributes":{
            "title":"碩士班20",
            "content":"<p>碩士班碩士班碩士班碩士班碩士班碩士班碩士班碩士班碩士班碩士班碩士班碩士班碩士班碩士班碩士班碩士班碩士班</p>",
            "date":"2023-01-04",
            "createdAt":"2023-01-17T08:13:14.581Z",
            "updatedAt":"2023-01-19T13:33:56.020Z",
            "publishedAt":"2023-01-17T08:13:15.602Z",
            "pin":null,
            "locale":"zh-Hant",
            "newsType":{
               "data":[
                  {
                     "id":2,
                     "attributes":{
                        "createdAt":"2022-08-03T07:38:21.775Z",
                        "updatedAt":"2022-08-31T06:05:30.690Z",
                        "publishedAt":"2022-08-03T07:38:32.610Z",
                        "typeName":"碩士班"
                     }
                  }
               ]
            }
         }
      }
   ],
   "meta":{
      "pagination":{
         "page":1,
         "pageSize":25,
         "pageCount":2,
         "total":41
      }
   }
}